<svg width="1115" height="385" xmlns="http://www.w3.org/2000/svg">
    <!-- Created with Method Draw - http://github.com/duopixel/Method-Draw/ -->
    <g id="obj_1">
        <g id="obj_3" transform="matrix(1,0,0,1,-1,-1)" opacity="1" display="inline"><path d="M 0 402 L 0 0 L 1152 0 L 1152 402 L 0 402 Z " fill="none" stroke="none" stroke-width="1" stroke-linecap="square" stroke-linejoin="miter"></path></g>
        <g id="obj_4" transform="matrix(1,0,0,1,304.767,148.046)" opacity="1" display="inline"><path d="M 0.9153 7.9473 L 13.6105 20.4612 C 15.1115 21.9401 17.9315 21.5651 19.9036 19.6212 L 19.9036 19.6212 C 21.8746 17.6782 22.2536 14.8982 20.7546 13.4192 L 8.0604 0.9044 C 6.5614 -0.5756 3.7394 -0.1996 1.7674 1.7424 L 1.7674 1.7424 C -0.2027 3.6874 -0.5827 6.4663 0.9153 7.9473 Z " fill-opacity="1" fill="#f48a00" stroke="none" stroke-width="0.9" stroke-linecap="square" stroke-linejoin="miter"></path><defs></defs></g>
        <g id="obj_5" transform="matrix(1,0,0,1,423.965,151.10899999999998)" opacity="1" display="inline"><path d="M 8.1403 20.5963 L 20.6112 7.8657 C 22.0852 6.3597 21.6552 3.5868 19.6482 1.6769 L 19.6482 1.6769 C 17.6442 -0.2331 14.8182 -0.5601 13.3442 0.9469 L 0.8743 13.6765 C -0.5977 15.1814 -0.1677 17.9554 1.8383 19.8663 L 1.8383 19.8663 C 3.8413 21.7752 6.6683 22.1012 8.1403 20.5963 L 8.1403 20.5963 Z " fill-opacity="1" fill="#f48a00" stroke="none" stroke-width="0.9" stroke-linecap="square" stroke-linejoin="miter"></path><defs></defs></g>
        <g id="obj_6" transform="matrix(1,0,0,1,418.094,251.526)" opacity="1" display="inline"><path d="M 0.9177 7.9497 L 13.6126 20.4623 C 15.1116 21.9423 17.9336 21.5643 19.9026 19.6224 L 19.9026 19.6224 C 21.8746 17.6774 22.2536 14.8965 20.7546 13.4196 L 8.0596 0.902 C 6.5596 -0.574 3.7397 -0.2 1.7677 1.7419 L 1.7677 1.7419 C -0.2033 3.6869 -0.5833 6.4688 0.9177 7.9497 Z " fill-opacity="1" fill="#f48a00" stroke="none" stroke-width="0.9" stroke-linecap="square" stroke-linejoin="miter"></path><defs></defs></g>
        <g id="obj_7" transform="matrix(1,0,0,1,371.765,273.099)" opacity="1" display="inline"><path d="M 0 3.794 L 0 21.493 C 0 23.585 2.264 25.285 5.051 25.285 L 5.051 25.285 C 7.84 25.285 10.102 23.585 10.102 21.493 L 10.102 3.794 C 10.102 1.702 7.84 0 5.051 0 L 5.051 0 C 2.264 0 0 1.702 0 3.794 Z " fill-opacity="1" fill="#f48a00" stroke="none" stroke-width="0.9" stroke-linecap="square" stroke-linejoin="miter"></path><defs></defs></g>
        <g id="obj_8" transform="matrix(1,0,0,1,438.211,211.286)" opacity="1" display="inline"><path d="M 21.797 0 L 3.846 0 C 1.725 0 0 2.233 0 4.981 L 0 4.981 C 0 7.729 1.725 9.96 3.846 9.96 L 21.797 9.96 C 23.92 9.96 25.643 7.729 25.643 4.981 L 25.643 4.981 C 25.643 2.233 23.92 0 21.797 0 L 21.797 0 Z " fill-opacity="1" fill="#f48a00" stroke="none" stroke-width="0.9" stroke-linecap="square" stroke-linejoin="miter"></path><defs></defs></g>
        <g id="obj_9" transform="matrix(1,0,0,1,370.593,118.73)" opacity="1" display="inline"><path d="M 0 3.792 L 0 21.491 C 0 23.583 2.262 25.285 5.051 25.285 L 5.051 25.285 C 7.84 25.285 10.102 23.583 10.102 21.491 L 10.102 3.792 C 10.102 1.7 7.84 0 5.051 0 L 5.051 0 C 2.262 0 0 1.7 0 3.792 Z " fill-opacity="1" fill="#f48a00" stroke="none" stroke-width="0.9" stroke-linecap="square" stroke-linejoin="miter"></path><defs></defs></g>
        <g id="obj_10" transform="matrix(1,0,0,1,219.663,118.98300000000002)" opacity="1" display="inline"><path d="M 25.8611 10.0443 L 10.0447 25.8616 C 8.1747 27.7306 4.6606 27.2576 2.2036 24.7995 L 2.2036 24.7995 C -0.2535 22.3435 -0.7265 18.8294 1.1425 16.9594 L 16.9599 1.1421 C 18.8289 -0.7269 22.344 -0.2529 24.7991 2.2042 L 24.7991 2.2042 C 27.2571 4.6602 27.7312 8.1753 25.8611 10.0443 Z " fill-opacity="1" fill="#f48a00" stroke="none" stroke-width="0.9" stroke-linecap="square" stroke-linejoin="miter"></path><defs></defs></g>
        <g id="obj_11" transform="matrix(1,0,0,1,68.938,122.857)" opacity="1" display="inline"><path d="M 16.6306 26.0293 L 1.0912 9.9394 C -0.7448 8.0384 -0.2098 4.5324 2.2892 2.1184 L 2.2892 2.1184 C 4.7883 -0.2946 8.3104 -0.7066 10.1464 1.1944 L 25.6858 17.2853 C 27.5218 19.1863 26.9868 22.6923 24.4878 25.1053 L 24.4878 25.1053 C 21.9877 27.5193 18.4666 27.9303 16.6306 26.0293 L 16.6306 26.0293 Z " fill-opacity="1" fill="#f48a00" stroke="none" stroke-width="0.9" stroke-linecap="square" stroke-linejoin="miter"></path><defs></defs></g>
        <g id="obj_12" transform="matrix(1,0,0,1,73.614,254.66100000000003)" opacity="1" display="inline"><path d="M 25.8608 10.0432 L 10.0434 25.8613 C 8.1744 27.7293 4.6603 27.2563 2.2032 24.7993 L 2.2032 24.7993 C -0.2528 22.3433 -0.7268 18.8282 1.1422 16.9602 L 16.9596 1.1421 C 18.8286 -0.7269 22.3427 -0.2529 24.7998 2.2041 L 24.7998 2.2041 C 27.2558 4.6602 27.7298 8.1742 25.8608 10.0432 Z " fill-opacity="1" fill="#f48a00" stroke="none" stroke-width="0.9" stroke-linecap="square" stroke-linejoin="miter"></path><defs></defs></g>
        <g id="obj_13" transform="matrix(1,0,0,1,148.175,281.922)" opacity="1" display="inline"><path d="M 12.588 4.794 L 12.588 27.162 C 12.588 29.806 9.768 31.956 6.294 31.956 L 6.294 31.956 C 2.82 31.956 0 29.806 0 27.162 L 0 4.794 C 0 2.15 2.82 0 6.294 0 L 6.294 0 C 9.768 0 12.588 2.15 12.588 4.794 L 12.588 4.794 Z " fill-opacity="1" fill="#f48a00" stroke="none" stroke-width="0.9" stroke-linecap="square" stroke-linejoin="miter"></path><defs></defs></g>
        <g id="obj_14" transform="matrix(1,0,0,1,43.594,198.907)" opacity="1" display="inline"><path d="M 4.793 0 L 27.162 0 C 29.805 0 31.955 2.819 31.955 6.294 L 31.955 6.294 C 31.955 9.768 29.805 12.588 27.162 12.588 L 4.793 12.588 C 2.15 12.588 0 9.768 0 6.294 L 0 6.294 C 0 2.819 2.15 0 4.793 0 Z " fill-opacity="1" fill="#f48a00" stroke="none" stroke-width="0.9" stroke-linecap="square" stroke-linejoin="miter"></path><defs></defs></g>
        <g id="obj_15" transform="matrix(1,0,0,1,152.048,81.93300000000002)" opacity="1" display="inline"><path d="M 12.589 4.793 L 12.589 27.162 C 12.589 29.805 9.769 31.955 6.294 31.955 L 6.294 31.955 C 2.82 31.955 0 29.805 0 27.162 L 0 4.793 C 0 2.15 2.82 0 6.294 0 L 6.294 0 C 9.769 0 12.589 2.15 12.589 4.793 Z " fill-opacity="1" fill="#f48a00" stroke="none" stroke-width="0.9" stroke-linecap="square" stroke-linejoin="miter"></path><defs></defs></g>
        <g id="obj_16" transform="matrix(1,0,0,1,279.699,210.062)" opacity="1" display="inline"><path d="M 26.145 0 C 40.577 0 52.29 12.147 52.29 27.113 C 52.29 42.08 40.577 54.227 26.145 54.227 C 11.713 54.227 0 42.08 0 27.113 C 0 12.147 11.713 0 26.145 0 L 26.145 0 Z " fill-opacity="1" fill="#FFFFFF" stroke-opacity="1" stroke="#FFFFFF" stroke-width="0" stroke-linecap="square" stroke-linejoin="miter"></path><defs></defs></g>
        <g id="obj_17" transform="matrix(1,0,0,1,215.788,208.125)" opacity="1" display="inline"><path d="M 26.145 0 C 40.578 0 52.291 12.147 52.291 27.114 C 52.291 42.08 40.578 54.227 26.145 54.227 C 11.713 54.227 0 42.08 0 27.114 C 0 12.147 11.713 0 26.145 0 L 26.145 0 Z " fill-opacity="1" fill="#FFFFFF" stroke-opacity="1" stroke="#FFFFFF" stroke-width="0" stroke-linecap="square" stroke-linejoin="miter"></path><defs></defs></g>
        <g id="obj_18" transform="matrix(1,0,0,1,26.70599999999999,66.05799999999999)" opacity="1" display="inline"><path d="M 347.028 34.072 C 308.213 34.089 274.271 54.506 255.065 85.123 C 236.163 35.414 188.226 0.023 131.875 0 C 59.051 0.033 0 59.067 0 131.907 C 0 204.748 59.051 263.782 131.875 263.782 C 160.293 263.782 186.537 254.709 208.066 239.43 L 242.608 294.068 C 244.806 297.534 248.602 299.626 252.685 299.626 C 252.842 299.626 252.999 299.616 253.163 299.616 C 257.436 299.461 261.264 297.067 263.273 293.287 L 293.28 236.895 C 309.135 245.966 327.453 251.219 347.036 251.226 C 407.01 251.203 455.607 202.616 455.632 142.658 C 455.597 82.685 407.002 34.097 347.028 34.072 L 347.028 34.072 L 347.028 34.072 Z M 27.102 131.907 C 27.224 74.033 74.018 27.224 131.875 27.125 C 189.748 27.224 236.55 74.024 236.641 131.907 C 236.55 189.764 189.756 236.581 131.875 236.68 C 74.018 236.581 27.216 189.764 27.102 131.907 L 27.102 131.907 Z M 251.821 263.906 L 226.433 223.739 C 235.842 214.058 243.704 202.92 249.795 190.726 C 255.789 202.821 263.939 213.597 273.793 222.627 L 251.821 263.906 Z M 347.028 224.119 C 302.039 224.036 265.643 187.664 265.577 142.666 C 265.643 97.659 302.039 61.265 347.028 61.191 C 392.028 61.273 428.415 97.669 428.498 142.666 C 428.415 187.664 392.028 224.036 347.028 224.119 Z " fill-opacity="1" fill="#FFB300" stroke="none" stroke-width="1" stroke-linecap="square" stroke-linejoin="miter"></path><defs></defs></g>
        <g id="obj_19" transform="matrix(1,0,0,1,145.269,19.194000000000003)" opacity="1" display="inline"><path d="M 137.8677 88.934 C 103.1277 47.64 49.4856 33.076 25.0576 28.844 L 25.0576 28.844 C 16.9486 27.396 12.5526 27.084 12.5376 27.084 L 12.5376 27.084 L 12.5526 27.084 C 5.0695 26.507 -0.5275 20.0109 0.0395 12.5279 L 0.0395 12.5279 C 0.6165 5.0689 7.1286 -0.5301 14.5956 0.0399 L 14.5956 0.0399 C 15.8546 0.3919 94.3757 5.5629 150.2237 62.326 L 150.2237 62.326 C 166.4507 51.846 200.2688 33.266 240.6738 30.647 L 240.6738 30.647 C 248.1398 30.194 254.5548 35.9 254.9978 43.368 L 254.9978 43.368 C 255.4508 50.834 249.7298 57.248 242.2618 57.699 L 242.2618 57.699 C 208.1068 59.593 176.2638 77.475 163.0757 86.283 L 163.0757 86.283 C 158.6637 89.198 156.5467 90.844 156.5217 90.844 L 156.5217 90.844 C 154.0447 92.779 151.1147 93.726 148.1897 93.726 L 148.1897 93.726 C 144.3457 93.726 140.5347 92.095 137.8677 88.934 L 137.8677 88.934 Z " fill-opacity="1" fill="#FFB300" stroke="none" stroke-width="1" stroke-linecap="square" stroke-linejoin="miter"></path><defs></defs></g>
        <g id="obj_21" transform="matrix(1,0,0,1,140.621,177.937)" opacity="1" display="inline"><path d="M 0 0 L 42.308 14.2587 L 84.613 28.5175 L 76.818 42.5802 L 69.024 56.641 L 34.514 28.3205 L 0 0 L 0 0 Z " fill-opacity="1" fill="#FFFFFF" stroke-opacity="1" stroke="#FFFFFF" stroke-width="0" stroke-linecap="square" stroke-linejoin="miter"></path><defs></defs></g>
        <g id="obj_22" transform="matrix(1,0,0,1,330.976,197.726)" opacity="1" display="inline"><path d="M 67.754 0 L 36.88 17.281 L 6.008 34.563 L 3.004 27.484 L 0 20.409 L 33.876 10.205 L 67.754 0 L 67.754 0 Z " fill-opacity="1" fill="#FFFFFF" stroke-opacity="1" stroke="#FFFFFF" stroke-width="0" stroke-linecap="square" stroke-linejoin="miter"></path><defs></defs></g>
        <g id="obj_24" transform="matrix(1,0,0,1,500.242,84.151)" opacity="1" display="inline"><path d="M 0.0214 113.4 L 21.3964 113.4 C 21.3964 126.75 25.8594 136.612 34.7844 142.987 C 43.7094 149.362 53.5714 152.775 64.3714 153.225 C 64.6714 153.225 64.9714 153.225 65.2714 153.225 C 65.5714 153.225 65.8714 153.225 66.1714 153.225 C 75.7714 153.225 84.5844 151.012 92.6094 146.587 C 100.6344 142.162 105.2464 135.825 106.4464 127.575 C 106.5964 126.975 106.6714 126.412 106.6714 125.887 C 106.6714 125.362 106.6714 124.8 106.6714 124.2 C 106.6714 113.7 102.2844 106.612 93.5094 102.937 C 84.7344 99.262 74.7214 96.3 63.4714 94.05 C 62.1214 93.75 60.8464 93.487 59.6464 93.262 C 58.4464 93.037 57.2464 92.775 56.0464 92.475 C 42.6964 89.625 30.5844 85.125 19.7094 78.975 C 8.8344 72.825 4.0714 60.675 5.4214 42.525 C 6.3214 30.975 11.6464 21 21.3964 12.6 C 31.1464 4.2 45.3214 0 63.9214 0 C 82.5214 0 97.4094 4.275 108.5844 12.825 C 119.7594 21.375 124.8964 33.6 123.9964 49.5 L 102.8464 49.5 C 102.8464 49.2 102.8464 48.975 102.8464 48.825 C 102.8464 48.675 102.8464 48.45 102.8464 48.15 C 102.8464 48 102.8464 47.812 102.8464 47.587 C 102.8464 47.362 102.8464 47.175 102.8464 47.025 C 102.8464 37.725 98.9094 30.6 91.0344 25.65 C 83.1594 20.7 74.4964 18.075 65.0464 17.775 C 64.7464 17.775 64.4844 17.775 64.2594 17.775 C 64.0344 17.775 63.8464 17.775 63.6964 17.775 C 54.5464 17.775 46.1844 20.062 38.6094 24.637 C 31.0344 29.212 27.0214 36.375 26.5714 46.125 C 27.7714 54.075 32.3094 59.662 40.1844 62.887 C 48.0594 66.112 57.1714 68.85 67.5214 71.1 C 69.3214 71.55 71.1964 72 73.1464 72.45 C 75.0964 72.9 77.0464 73.35 78.9964 73.8 C 91.1464 76.65 102.4344 80.962 112.8594 86.737 C 123.2844 92.512 129.3964 102.6 131.1964 117 C 132.0964 134.85 125.6464 148.425 111.8464 157.725 C 98.0464 167.025 82.7464 171.825 65.9464 172.125 C 65.7964 172.125 65.6844 172.125 65.6094 172.125 C 65.5344 172.125 65.4214 172.125 65.2714 172.125 C 48.7714 172.125 33.6594 167.362 19.9344 157.837 C 6.2094 148.312 -0.4286 133.5 0.0214 113.4 L 0.0214 113.4 Z M 148.7464 106.2 C 150.5464 87.6 155.7214 72.637 164.2714 61.312 C 172.8214 49.987 185.9464 44.325 203.6464 44.325 C 221.9464 44.325 234.7714 49.687 242.1214 60.412 C 249.4714 71.137 254.0464 82.875 255.8464 95.625 C 256.2964 98.925 256.5964 102.225 256.7464 105.525 C 256.8964 108.825 256.9714 112.05 256.9714 115.2 L 170.1214 115.2 C 170.5714 128.7 173.8344 138.45 179.9094 144.45 C 185.9844 150.45 192.6964 153.45 200.0464 153.45 C 200.3464 153.45 200.6844 153.45 201.0594 153.45 C 201.4344 153.45 201.7714 153.45 202.0714 153.45 C 208.6714 153 214.9344 150.675 220.8594 146.475 C 226.7844 142.275 231.0964 136.575 233.7964 129.375 L 253.3714 129.375 C 252.4714 141.675 247.5214 151.275 238.5214 158.175 C 229.5214 165.075 217.8964 168.975 203.6464 169.875 C 186.5464 169.275 173.9464 164.587 165.8464 155.812 C 157.7464 147.037 152.5714 137.4 150.3214 126.9 C 149.4214 123.3 148.8594 119.737 148.6344 116.212 C 148.4094 112.687 148.4464 109.35 148.7464 106.2 L 148.7464 106.2 M 170.1214 97.425 L 235.5964 97.425 C 234.6964 85.425 231.1714 76.312 225.0214 70.087 C 218.8714 63.862 212.0464 60.75 204.5464 60.75 C 204.2464 60.75 203.9464 60.75 203.6464 60.75 C 203.3464 60.75 203.0464 60.75 202.7464 60.75 C 195.6964 61.2 189.0214 64.462 182.7214 70.537 C 176.4214 76.612 172.2214 85.575 170.1214 97.425 L 170.1214 97.425 Z M 274.5214 106.2 C 276.3214 87.6 281.4964 72.637 290.0464 61.312 C 298.5964 49.987 311.7214 44.325 329.4214 44.325 C 347.7214 44.325 360.5464 49.687 367.8964 60.412 C 375.2464 71.137 379.8214 82.875 381.6214 95.625 C 382.0714 98.925 382.3714 102.225 382.5214 105.525 C 382.6714 108.825 382.7464 112.05 382.7464 115.2 L 295.8964 115.2 C 296.3464 128.7 299.6094 138.45 305.6844 144.45 C 311.7594 150.45 318.4714 153.45 325.8214 153.45 C 326.1214 153.45 326.4594 153.45 326.8344 153.45 C 327.2094 153.45 327.5464 153.45 327.8464 153.45 C 334.4464 153 340.7094 150.675 346.6344 146.475 C 352.5594 142.275 356.8714 136.575 359.5714 129.375 L 379.1464 129.375 C 378.2464 141.675 373.2964 151.275 364.2964 158.175 C 355.2964 165.075 343.6714 168.975 329.4214 169.875 C 312.3214 169.275 299.7214 164.587 291.6214 155.812 C 283.5214 147.037 278.3464 137.4 276.0964 126.9 C 275.1964 123.3 274.6344 119.737 274.4094 116.212 C 274.1844 112.687 274.2214 109.35 274.5214 106.2 L 274.5214 106.2 M 295.8964 97.425 L 361.3714 97.425 C 360.4714 85.425 356.9464 76.312 350.7964 70.087 C 344.6464 63.862 337.8214 60.75 330.3214 60.75 C 330.0214 60.75 329.7214 60.75 329.4214 60.75 C 329.1214 60.75 328.8214 60.75 328.5214 60.75 C 321.4714 61.2 314.7964 64.462 308.4964 70.537 C 302.1964 76.612 297.9964 85.575 295.8964 97.425 L 295.8964 97.425 Z M 412.6714 166.5 L 412.6714 1.8 L 434.0464 1.8 L 434.0464 166.5 L 412.6714 166.5 L 412.6714 166.5 Z M 512.1214 166.5 L 512.1214 19.35 L 457.2214 19.35 L 457.2214 1.8 L 586.5964 1.8 L 586.5964 19.35 L 535.0714 19.35 L 535.0714 166.5 L 512.1214 166.5 L 512.1214 166.5 Z " fill-opacity="1" fill="#FFFFFF" stroke="none" stroke-width="1" stroke-linecap="square" stroke-linejoin="miter" stroke-opacity="1"></path><defs></defs></g>
        <g id="obj_25" transform="matrix(1,0,0,1,619.932,289.595)" opacity="1" display="inline">
            <path d="M 19.764 59.292 L 19.764 6.318 L 0 6.318 L 0 0 L 46.575 0 L 46.575 6.318 L 28.026 6.318 L 28.026 59.292 L 19.764 59.292 L 19.764 59.292 Z M 51.597 39.528 C 51.597 33.426 52.974 27.972 55.728 23.166 C 58.482 18.36 63.693 15.957 71.361 15.957 C 71.847 15.957 72.333 15.97 72.819 15.997 C 73.305 16.024 73.791 16.065 74.277 16.119 C 78.327 16.713 82.053 18.765 85.455 22.275 C 88.857 25.785 90.558 31.536 90.558 39.528 C 90.558 40.716 90.437 42.093 90.193 43.659 C 89.951 45.225 89.505 46.845 88.857 48.519 C 87.669 51.435 85.725 54.108 83.025 56.538 C 80.325 58.968 76.437 60.291 71.361 60.507 C 65.313 60.831 60.507 59.333 56.943 56.011 C 53.379 52.69 51.597 47.196 51.597 39.528 L 51.597 39.528 M 58.644 38.88 C 58.914 44.388 60.264 48.411 62.694 50.949 C 65.124 53.487 67.743 54.756 70.551 54.756 C 70.605 54.756 70.646 54.756 70.673 54.756 C 70.7 54.756 70.74 54.756 70.794 54.756 C 73.98 54.702 76.883 53.163 79.502 50.139 C 82.121 47.115 83.241 42.93 82.863 37.584 C 82.701 32.4 81.365 28.498 78.854 25.879 C 76.343 23.26 73.575 21.951 70.551 21.951 C 67.473 21.951 64.679 23.355 62.168 26.163 C 59.657 28.971 58.482 33.21 58.644 38.88 L 58.644 38.88 Z M 122.472 59.292 L 122.472 0 C 123.984 0 125.523 0 127.089 0 C 128.655 0 130.221 0 131.787 0 C 134.973 0 138.092 0 141.143 0 C 144.194 0 146.88 0 149.202 0 C 153.036 0.324 156.37 1.755 159.206 4.293 C 162.041 6.831 163.62 9.855 163.944 13.365 C 164.052 13.797 164.119 14.215 164.147 14.62 C 164.174 15.025 164.187 15.444 164.187 15.876 C 164.187 18.738 163.458 21.208 162 23.287 C 160.542 25.366 158.841 26.946 156.897 28.026 C 159.759 28.998 162.068 30.496 163.823 32.521 C 165.578 34.546 166.455 37.314 166.455 40.824 C 166.509 41.202 166.536 41.553 166.536 41.877 C 166.536 42.201 166.536 42.525 166.536 42.849 C 166.59 47.115 165.308 50.638 162.689 53.419 C 160.07 56.2 157.194 57.996 154.062 58.806 C 153.468 58.968 152.874 59.09 152.28 59.17 C 151.686 59.251 151.092 59.292 150.498 59.292 L 122.472 59.292 L 122.472 59.292 M 130.086 51.678 L 150.498 51.678 C 153.36 51.192 155.493 50.031 156.897 48.195 C 158.301 46.359 159.03 44.388 159.084 42.282 C 159.084 42.228 159.084 42.174 159.084 42.12 C 159.084 42.066 159.084 42.012 159.084 41.958 C 159.03 39.852 158.234 37.867 156.695 36.004 C 155.156 34.141 152.874 32.967 149.85 32.481 L 130.086 32.481 L 130.086 51.678 L 130.086 51.678 M 130.086 24.867 L 146.691 24.867 C 146.799 24.867 146.894 24.88 146.975 24.907 C 147.056 24.934 147.15 24.948 147.258 24.948 C 147.312 24.948 147.393 24.948 147.501 24.948 C 147.609 24.948 147.69 24.948 147.744 24.948 C 150.282 24.948 152.28 24.03 153.738 22.194 C 155.196 20.358 155.925 18.333 155.925 16.119 C 155.925 16.011 155.925 15.903 155.925 15.795 C 155.925 15.687 155.925 15.579 155.925 15.471 C 155.763 13.203 154.751 11.11 152.888 9.193 C 151.025 7.276 148.095 6.318 144.099 6.318 L 130.086 6.318 L 130.086 24.867 L 130.086 24.867 Z M 173.421 37.584 C 174.069 30.888 175.932 25.501 179.01 21.424 C 182.088 17.347 186.813 15.309 193.185 15.309 C 199.773 15.309 204.39 17.239 207.036 21.1 C 209.682 24.961 211.329 29.187 211.977 33.777 C 212.139 34.965 212.247 36.153 212.301 37.341 C 212.355 38.529 212.382 39.69 212.382 40.824 L 181.116 40.824 C 181.278 45.684 182.453 49.194 184.64 51.354 C 186.827 53.514 189.243 54.594 191.889 54.594 C 191.997 54.594 192.118 54.594 192.254 54.594 C 192.389 54.594 192.51 54.594 192.618 54.594 C 194.994 54.432 197.249 53.595 199.382 52.083 C 201.515 50.571 203.067 48.519 204.039 45.927 L 211.086 45.927 C 210.762 50.355 208.98 53.811 205.74 56.295 C 202.5 58.779 198.315 60.183 193.185 60.507 C 187.029 60.291 182.493 58.603 179.577 55.444 C 176.661 52.285 174.798 48.816 173.988 45.036 C 173.664 43.74 173.462 42.457 173.381 41.188 C 173.3 39.919 173.313 38.718 173.421 37.584 L 173.421 37.584 M 181.116 34.425 L 204.687 34.425 C 204.363 30.105 203.094 26.824 200.88 24.583 C 198.666 22.342 196.209 21.222 193.509 21.222 C 193.401 21.222 193.293 21.222 193.185 21.222 C 193.077 21.222 192.969 21.222 192.861 21.222 C 190.323 21.384 187.92 22.558 185.652 24.745 C 183.384 26.932 181.872 30.159 181.116 34.425 L 181.116 34.425 Z M 220.644 59.292 L 220.644 0 L 227.691 0 L 227.691 59.292 L 220.644 59.292 L 220.644 59.292 Z M 238.464 59.292 L 238.464 16.524 L 245.511 16.524 L 245.511 59.292 L 238.464 59.292 L 238.464 59.292 M 238.464 8.91 L 238.464 0 L 245.511 0 L 245.511 8.91 L 238.464 8.91 L 238.464 8.91 Z M 254.34 37.584 C 254.988 30.888 256.851 25.501 259.929 21.424 C 263.007 17.347 267.732 15.309 274.104 15.309 C 280.692 15.309 285.309 17.239 287.955 21.1 C 290.601 24.961 292.248 29.187 292.896 33.777 C 293.058 34.965 293.166 36.153 293.22 37.341 C 293.274 38.529 293.301 39.69 293.301 40.824 L 262.035 40.824 C 262.197 45.684 263.371 49.194 265.559 51.354 C 267.746 53.514 270.162 54.594 272.808 54.594 C 272.916 54.594 273.037 54.594 273.172 54.594 C 273.308 54.594 273.429 54.594 273.537 54.594 C 275.913 54.432 278.168 53.595 280.301 52.083 C 282.434 50.571 283.986 48.519 284.958 45.927 L 292.005 45.927 C 291.681 50.355 289.899 53.811 286.659 56.295 C 283.419 58.779 279.234 60.183 274.104 60.507 C 267.948 60.291 263.412 58.603 260.496 55.444 C 257.58 52.285 255.717 48.816 254.907 45.036 C 254.583 43.74 254.38 42.457 254.3 41.188 C 254.219 39.919 254.232 38.718 254.34 37.584 L 254.34 37.584 M 262.035 34.425 L 285.606 34.425 C 285.282 30.105 284.013 26.824 281.799 24.583 C 279.585 22.342 277.128 21.222 274.428 21.222 C 274.32 21.222 274.212 21.222 274.104 21.222 C 273.996 21.222 273.888 21.222 273.78 21.222 C 271.242 21.384 268.839 22.558 266.571 24.745 C 264.303 26.932 262.791 30.159 262.035 34.425 L 262.035 34.425 Z M 311.769 59.292 L 297.108 16.524 L 304.722 16.524 L 315.576 51.03 L 328.374 16.524 L 335.988 16.524 L 319.383 59.292 L 311.769 59.292 L 311.769 59.292 Z M 340.443 37.584 C 341.091 30.888 342.954 25.501 346.032 21.424 C 349.11 17.347 353.835 15.309 360.207 15.309 C 366.795 15.309 371.412 17.239 374.058 21.1 C 376.704 24.961 378.351 29.187 378.999 33.777 C 379.161 34.965 379.269 36.153 379.323 37.341 C 379.377 38.529 379.404 39.69 379.404 40.824 L 348.138 40.824 C 348.3 45.684 349.474 49.194 351.662 51.354 C 353.849 53.514 356.265 54.594 358.911 54.594 C 359.019 54.594 359.14 54.594 359.276 54.594 C 359.411 54.594 359.532 54.594 359.64 54.594 C 362.016 54.432 364.271 53.595 366.404 52.083 C 368.537 50.571 370.089 48.519 371.061 45.927 L 378.108 45.927 C 377.784 50.355 376.002 53.811 372.762 56.295 C 369.522 58.779 365.337 60.183 360.207 60.507 C 354.051 60.291 349.515 58.603 346.599 55.444 C 343.683 52.285 341.82 48.816 341.01 45.036 C 340.686 43.74 340.484 42.457 340.402 41.188 C 340.322 39.919 340.335 38.718 340.443 37.584 L 340.443 37.584 M 348.138 34.425 L 371.709 34.425 C 371.385 30.105 370.116 26.824 367.902 24.583 C 365.688 22.342 363.231 21.222 360.531 21.222 C 360.423 21.222 360.315 21.222 360.207 21.222 C 360.099 21.222 359.991 21.222 359.883 21.222 C 357.345 21.384 354.942 22.558 352.674 24.745 C 350.406 26.932 348.894 30.159 348.138 34.425 L 348.138 34.425 Z M 412.533 59.292 L 412.533 0 L 420.228 0 L 420.228 59.292 L 412.533 59.292 L 412.533 59.292 Z M 448.335 59.292 L 448.335 6.318 L 428.571 6.318 L 428.571 0 L 475.146 0 L 475.146 6.318 L 456.597 6.318 L 456.597 59.292 L 448.335 59.292 L 448.335 59.292 Z " fill-opacity="1" fill="#FFFFFF" stroke="none" stroke-width="1" stroke-linecap="square" stroke-linejoin="miter"></path>
        </g>
    </g>
</svg>